^C:\USERS\MENYUERU\DESKTOP\PROGRAMMING GAME AI BY EXAMPLE\VS2010\BUCKLAND_CHAPTER5-PATHFINDER\DEBUG\CGDI.SBR|C:\USERS\MENYUERU\DESKTOP\PROGRAMMING GAME AI BY EXAMPLE\VS2010\BUCKLAND_CHAPTER5-PATHFINDER\DEBUG\MAIN.SBR|C:\USERS\MENYUERU\DESKTOP\PROGRAMMING GAME AI BY EXAMPLE\VS2010\BUCKLAND_CHAPTER5-PATHFINDER\DEBUG\PATHFINDER.SBR|C:\USERS\MENYUERU\DESKTOP\PROGRAMMING GAME AI BY EXAMPLE\VS2010\BUCKLAND_CHAPTER5-PATHFINDER\DEBUG\PRECISIONTIMER.SBR|C:\USERS\MENYUERU\DESKTOP\PROGRAMMING GAME AI BY EXAMPLE\VS2010\BUCKLAND_CHAPTER5-PATHFINDER\DEBUG\WINDOWUTILS.SBR
C:\USERS\MENYUERU\DESKTOP\PROGRAMMING GAME AI BY EXAMPLE\VS2010\BUCKLAND_CHAPTER5-PATHFINDER\DEBUG\PATHFINDER.BSC
^C:\USERS\MENYUERU\DESKTOP\BARCAMP2014\PATHFINDER\DEBUG\CGDI.SBR|C:\USERS\MENYUERU\DESKTOP\BARCAMP2014\PATHFINDER\DEBUG\MAIN.SBR|C:\USERS\MENYUERU\DESKTOP\BARCAMP2014\PATHFINDER\DEBUG\PATHFINDER.SBR|C:\USERS\MENYUERU\DESKTOP\BARCAMP2014\PATHFINDER\DEBUG\PRECISIONTIMER.SBR|C:\USERS\MENYUERU\DESKTOP\BARCAMP2014\PATHFINDER\DEBUG\WINDOWUTILS.SBR
C:\USERS\MENYUERU\DESKTOP\BARCAMP2014\PATHFINDER\DEBUG\PATHFINDER.BSC
